{
	"user": {
		"documents": {
			"interview": {
				"type": "document",
				"children": [
					{
						"bounds": {
							"x": 7,
							"y": 10,
							"width": 799,
							"height": 448
						},
						"fill": "#c7c5f0",
						"stroke": "#707070",
						"strokeWidth": 1
					},
					{
						"bounds": {
							"x": 341,
							"y": 149,
							"width": 177,
							"height": 44
						},
						"fill": "#0d0d0d",
						"text": "HEADING",
						"fontFamily": "Montserrat",
						"fontSize": 36,
						"fontStyle": "Regular",
						"charSpacing": 0,
						"textAlign": "left"
					},
					{
						"bounds": {
							"x": 299,
							"y": 155,
							"width": 40,
							"height": 18
						},
						"fill": "#0d0d0d",
						"text": "FIRST",
						"fontFamily": "Montserrat",
						"fontSize": 14,
						"fontStyle": "Regular",
						"charSpacing": 0,
						"textAlign": "left"
					},
					{
						"bounds": {
							"x": 191,
							"y": 220,
							"width": 57,
							"height": 19
						},
						"fill": "#3c3b5c",
						"text": "MENU1",
						"fontFamily": "Montserrat",
						"fontSize": 16,
						"fontStyle": "Regular",
						"charSpacing": 0,
						"textAlign": "left"
					},
					{
						"bounds": {
							"x": 284,
							"y": 220,
							"width": 61,
							"height": 19
						},
						"fill": "#3c3b5c",
						"text": "MENU2",
						"fontFamily": "Montserrat",
						"fontSize": 16,
						"fontStyle": "Regular",
						"charSpacing": 0,
						"textAlign": "left"
					},
					{
						"bounds": {
							"x": 377,
							"y": 220,
							"width": 61,
							"height": 19
						},
						"fill": "#3c3b5c",
						"text": "MENU3",
						"fontFamily": "Montserrat",
						"fontSize": 16,
						"fontStyle": "Regular",
						"charSpacing": 0,
						"textAlign": "left"
					},
					{
						"bounds": {
							"x": 470,
							"y": 220,
							"width": 62,
							"height": 19
						},
						"fill": "#3c3b5c",
						"text": "MENU4",
						"fontFamily": "Montserrat",
						"fontSize": 16,
						"fontStyle": "Regular",
						"charSpacing": 0,
						"textAlign": "left"
					},
					{
						"bounds": {
							"x": 563,
							"y": 220,
							"width": 61,
							"height": 19
						},
						"fill": "#3c3b5c",
						"text": "MENU5",
						"fontFamily": "Montserrat",
						"fontSize": 16,
						"fontStyle": "Regular",
						"charSpacing": 0,
						"textAlign": "left"
					},
					{
						"bounds": {
							"x": 274,
							"y": 479,
							"width": 266,
							"height": 346
						},
						"fill": "#c7c5f0",
						"stroke": "#707070",
						"strokeWidth": 1
					},
					{
						"bounds": {
							"x": 549,
							"y": 479,
							"width": 260,
							"height": 346
						},
						"fill": "#c7c5f0",
						"stroke": "#707070",
						"strokeWidth": 1
					},
					{
						"bounds": {
							"x": 24,
							"y": 482,
							"width": 83,
							"height": 18
						},
						"fill": "#3c3b5c",
						"text": "LOCATION 1",
						"fontFamily": "Montserrat",
						"fontSize": 14,
						"fontStyle": "Regular",
						"charSpacing": 0,
						"textAlign": "left"
					},
					{
						"bounds": {
							"x": 22,
							"y": 507,
							"width": 127,
							"height": 32
						},
						"fill": "#3c3b5c",
						"text": "Trip Title 1",
						"fontFamily": "Montserrat",
						"fontSize": 26,
						"fontStyle": "Regular",
						"charSpacing": 0,
						"textAlign": "left"
					},
					{
						"bounds": {
							"x": 24,
							"y": 548,
							"width": 224,
							"height": 259
						},
						"fill": "#3c3b5c",
						"text": "Lorem ipsum dolor sit amet, consectetur adipisicing elit, sed do eiusmod tempor incididunt ut labore et dolore magna aliqua. Ut enim ad minim veniam, quis nostrud exercitation.\r\rDuis aute irure dolor in reprehenderit in voluptate velit esse cillum dolore eu fugiat nulla pariatur. Excepteur sint occaecat cupidatat non proident, sunt in culpa qui officia deserunt mollit anim id est laborum. ",
						"fontFamily": "Montserrat",
						"fontSize": 12,
						"fontStyle": "Regular",
						"charSpacing": 0,
						"textAlign": "left"
					},
					{
						"bounds": {
							"x": 360,
							"y": 622,
							"width": 87,
							"height": 16
						},
						"fill": "#ffffff",
						"text": "TRIP TITLE 2",
						"fontFamily": "Montserrat",
						"fontSize": 13,
						"fontStyle": "Regular",
						"charSpacing": 54,
						"textAlign": "left"
					},
					{
						"bounds": {
							"x": 360,
							"y": 622,
							"width": 87,
							"height": 16
						},
						"fill": "#3c3b5c",
						"text": "TRIP TITLE 2",
						"fontFamily": "Montserrat",
						"fontSize": 13,
						"fontStyle": "Regular",
						"charSpacing": 54,
						"textAlign": "left"
					},
					{
						"bounds": {
							"x": 638,
							"y": 619,
							"width": 87,
							"height": 16
						},
						"fill": "#3c3b5c",
						"text": "TRIP TITLE 3",
						"fontFamily": "Montserrat",
						"fontSize": 13,
						"fontStyle": "Regular",
						"charSpacing": 54,
						"textAlign": "left"
					},
					{
						"bounds": {
							"x": 360,
							"y": 639.98046875,
							"width": 88,
							"height": 20
						},
						"fill": "#ffffff",
						"text": "Location 2",
						"fontFamily": "Montserrat",
						"fontSize": 17,
						"fontStyle": "Regular",
						"charSpacing": 0,
						"textAlign": "left"
					},
					{
						"bounds": {
							"x": 360,
							"y": 639.98046875,
							"width": 88,
							"height": 20
						},
						"fill": "#3c3b5c",
						"text": "Location 2",
						"fontFamily": "Montserrat",
						"fontSize": 17,
						"fontStyle": "Regular",
						"charSpacing": 0,
						"textAlign": "left"
					},
					{
						"bounds": {
							"x": 638,
							"y": 636.98046875,
							"width": 88,
							"height": 20
						},
						"fill": "#3c3b5c",
						"text": "Location 3",
						"fontFamily": "Montserrat",
						"fontSize": 17,
						"fontStyle": "Regular",
						"charSpacing": 0,
						"textAlign": "left"
					},
					{
						"bounds": {
							"x": 7,
							"y": 834,
							"width": 533,
							"height": 353
						},
						"fill": "#c7c5f0",
						"stroke": "#707070",
						"strokeWidth": 1
					},
					{
						"bounds": {
							"x": 549,
							"y": 834,
							"width": 260,
							"height": 353
						},
						"fill": "#c7c5f0",
						"stroke": "#707070",
						"strokeWidth": 1
					},
					{
						"bounds": {
							"x": 581.8515625,
							"y": 894,
							"width": 206.398193359375,
							"height": 236.163818359375
						}
					},
					{
						"bounds": {
							"x": 63,
							"y": 899,
							"width": 404,
							"height": 236
						},
						"fill": "#7472aa",
						"stroke": "#95989a",
						"strokeWidth": 1
					},
					{
						"bounds": {
							"x": 85,
							"y": 915,
							"width": 56,
							"height": 11
						},
						"fill": "#ffffff",
						"text": "LOCATION 4",
						"fontFamily": "Montserrat",
						"fontSize": 9,
						"fontStyle": "Regular",
						"charSpacing": 0,
						"textAlign": "left"
					},
					{
						"bounds": {
							"x": 85,
							"y": 932.740234375,
							"width": 130,
							"height": 30
						},
						"fill": "#ffffff",
						"text": "Trip Title 4",
						"fontFamily": "Montserrat",
						"fontSize": 25,
						"fontStyle": "Regular",
						"charSpacing": 0,
						"textAlign": "left"
					},
					{
						"bounds": {
							"x": 84.8515625,
							"y": 969.83984375,
							"width": 345,
							"height": 135
						},
						"fill": "#ffffff",
						"text": "Lorem ipsum dolor sit amet, consectetur adipisicing elit, sed do eiusmod tempor incididunt ut labore et dolore magna aliqua. Ut enim ad minim veniam, quis nostrud exercitation.\r\rDuis aute irure dolor in reprehenderit in voluptate velit esse cillum dolore eu fugiat nulla pariatur. Excepteur sint occaecat cupidatat non proident, sunt in culpa qui officia deserunt mollit anim id est laborum. ",
						"fontFamily": "Montserrat",
						"fontSize": 12,
						"fontStyle": "Regular",
						"charSpacing": 0,
						"textAlign": "left"
					}
                ]
			}
		}
	}
}
